questions/08-1-BIGGER-OR-GATE/wave.vcd
$date
	Wed Apr 17 16:43:37 2024
$end
$version
	Icarus Verilog
$end
$timescale
	1s
$end
$scope module BIGGER_OR_GATE_tb $end
$scope module DUT $end
$var wire 1 ! in0 $end
$var wire 1 " in1 $end
$var wire 1 # in2 $end
$var wire 1 $ w_1 $end
$var wire 1 % w_0 $end
$var wire 1 & out $end
$scope module OR0 $end
$var wire 1 ! in0 $end
$var wire 1 " in1 $end
$var wire 1 ' w_1 $end
$var wire 1 ( w_0 $end
$var wire 1 % out $end
$scope module NAND $end
$var wire 1 % out $end
$var wire 1 ' in1 $end
$var wire 1 ( in0 $end
$upscope $end
$scope module NOT0 $end
$var wire 1 ! in0 $end
$var wire 1 ( out $end
$scope module NAND $end
$var wire 1 ! in0 $end
$var wire 1 ! in1 $end
$var wire 1 ( out $end
$upscope $end
$upscope $end
$scope module NOT1 $end
$var wire 1 " in0 $end
$var wire 1 ' out $end
$scope module NAND $end
$var wire 1 " in0 $end
$var wire 1 " in1 $end
$var wire 1 ' out $end
$upscope $end
$upscope $end
$upscope $end
$scope module OR1 $end
$var wire 1 " in0 $end
$var wire 1 # in1 $end
$var wire 1 ) w_1 $end
$var wire 1 * w_0 $end
$var wire 1 $ out $end
$scope module NAND $end
$var wire 1 $ out $end
$var wire 1 ) in1 $end
$var wire 1 * in0 $end
$upscope $end
$scope module NOT0 $end
$var wire 1 " in0 $end
$var wire 1 * out $end
$scope module NAND $end
$var wire 1 " in0 $end
$var wire 1 " in1 $end
$var wire 1 * out $end
$upscope $end
$upscope $end
$scope module NOT1 $end
$var wire 1 # in0 $end
$var wire 1 ) out $end
$scope module NAND $end
$var wire 1 # in0 $end
$var wire 1 # in1 $end
$var wire 1 ) out $end
$upscope $end
$upscope $end
$upscope $end
$scope module OR2 $end
$var wire 1 % in0 $end
$var wire 1 $ in1 $end
$var wire 1 + w_1 $end
$var wire 1 , w_0 $end
$var wire 1 & out $end
$scope module NAND $end
$var wire 1 & out $end
$var wire 1 + in1 $end
$var wire 1 , in0 $end
$upscope $end
$scope module NOT0 $end
$var wire 1 % in0 $end
$var wire 1 , out $end
$scope module NAND $end
$var wire 1 % in0 $end
$var wire 1 % in1 $end
$var wire 1 , out $end
$upscope $end
$upscope $end
$scope module NOT1 $end
$var wire 1 $ in0 $end
$var wire 1 + out $end
$scope module NAND $end
$var wire 1 $ in0 $end
$var wire 1 $ in1 $end
$var wire 1 + out $end
$upscope $end
$upscope $end
$upscope $end
$upscope $end
$upscope $end
$enddefinitions $end
$comment Show the parameter values. $end
$dumpall
$end
#0
$dumpvars
1,
1+
1*
1)
1(
1'
0&
0%
0$
0#
0"
0!
$end
#2
1&
0,
1%
0(
1!
#4
0+
1$
0'
0*
1(
1"
0!
#6
0(
1!
#8
1,
0%
0)
1'
1*
1(
1#
0"
0!
#10
0,
1%
0(
1!
#12
0'
0*
1(
1"
0!
#14
0(
1!
